Robust Methods Lab
…
Pepper Joe measured the length and heat of 85 chili peppers. He wants to know if smaller peppers are hotter than longer peppers.

#read data.table to read in
chili<- read.delim("https://raw.githubusercontent.com/jgeller112/psy504-advanced-stats/main/slides/03-Robust_Methods/data/chillis.csv")

Some species display sexual size dimorphism – in which one sex is on average larger than the other. Such a pattern can tell us about the species’ ecology and mating habits. Do penguins display this sex difference in size? Let’s just look at a subset of the palmerpenguins data set, which we’ll call my_penguins.

my_penguins <- penguins %>% 
  filter(species == "Adelie",
         !is.na(sex), 
         island == "Torgersen") 
my_penguins

# A tibble: 47 × 8
   species island    bill_length_mm bill_depth_mm flipper_…¹ body_…² sex    year
   <fct>   <fct>              <dbl>         <dbl>      <int>   <int> <fct> <int>
 1 Adelie  Torgersen           39.1          18.7        181    3750 male   2007
 2 Adelie  Torgersen           39.5          17.4        186    3800 fema…  2007
 3 Adelie  Torgersen           40.3          18          195    3250 fema…  2007
 4 Adelie  Torgersen           36.7          19.3        193    3450 fema…  2007
 5 Adelie  Torgersen           39.3          20.6        190    3650 male   2007
 6 Adelie  Torgersen           38.9          17.8        181    3625 fema…  2007
 7 Adelie  Torgersen           39.2          19.6        195    4675 male   2007
 8 Adelie  Torgersen           41.1          17.6        182    3200 fema…  2007
 9 Adelie  Torgersen           38.6          21.2        191    3800 male   2007
10 Adelie  Torgersen           34.6          21.1        198    4400 male   2007
# … with 37 more rows, and abbreviated variable names ¹​flipper_length_mm,
#   ²​body_mass_g
…
